<?xml version="1.0" encoding="UTF-8" standalone="no"?>
<!-- Created with Inkscape (http://www.inkscape.org/) -->

<svg
   width="32"
   height="32"
   viewBox="0 0 8.4666665 8.4666669"
   version="1.1"
   id="svg5"
   inkscape:version="1.1.2 (0a00cf5339, 2022-02-04)"
   sodipodi:docname="thunar-paste-to-pastebin.svg"
   inkscape:export-filename="/home/tgy-tutorials/Scaricati/lm-21.3-xfce-dracula/thunar-icons/thunar-paste-to-pastebin.png"
   inkscape:export-xdpi="96"
   inkscape:export-ydpi="96"
   xmlns:inkscape="http://www.inkscape.org/namespaces/inkscape"
   xmlns:sodipodi="http://sodipodi.sourceforge.net/DTD/sodipodi-0.dtd"
   xmlns="http://www.w3.org/2000/svg"
   xmlns:svg="http://www.w3.org/2000/svg">
  <sodipodi:namedview
     id="namedview7"
     pagecolor="#8c8c8c"
     bordercolor="#666666"
     borderopacity="1.0"
     inkscape:pageshadow="2"
     inkscape:pageopacity="0"
     inkscape:pagecheckerboard="0"
     inkscape:document-units="px"
     showgrid="false"
     units="px"
     inkscape:zoom="19.926266"
     inkscape:cx="16.034113"
     inkscape:cy="15.983928"
     inkscape:window-width="1920"
     inkscape:window-height="990"
     inkscape:window-x="0"
     inkscape:window-y="0"
     inkscape:window-maximized="1"
     inkscape:current-layer="layer1" />
  <defs
     id="defs2" />
  <g
     inkscape:label="Livello 1"
     inkscape:groupmode="layer"
     id="layer1">
    <g
       style="fill:#eae6ed;fill-opacity:1"
       id="g927"
       transform="matrix(0.16841605,0,0,0.16841605,-0.14548371,-0.14548371)">
      <g
         id="g914"
         style="fill:#eae6ed;fill-opacity:1">
        <g
           id="g908"
           style="fill:#eae6ed;fill-opacity:1">
          <path
             d="M 44.4,19 H 33.2 C 30.6,19 29,17.4 29,14.8 V 3.6 C 29,2.7 28.3,2 27.4,2 H 10.8 C 8.2,2 6,4.2 6,6.8 V 45.2 C 6,47.8 8.2,50 10.8,50 H 41.2 C 43.8,50 46,47.8 46,45.2 V 20.6 C 46,19.7 45.3,19 44.4,19 Z"
             id="path906"
             style="fill:#eae6ed;fill-opacity:1" />
        </g>
        <g
           id="g912"
           style="fill:#eae6ed;fill-opacity:1">
          <path
             d="M 45.7,12.9 35.1,2.3 C 34.9,2.1 34.5,2 34.2,2 V 2 C 33.6,2 33,2.5 33,3.1 v 8.5 c 0,1.8 1.6,3.4 3.4,3.4 h 8.5 c 0.6,0 1.1,-0.6 1.1,-1.2 v 0 c 0,-0.3 -0.1,-0.7 -0.3,-0.9 z"
             id="path910"
             style="fill:#eae6ed;fill-opacity:1" />
        </g>
      </g>
    </g>
    <g
       id="g1208">
      <path
         d="m 2.3315106,4.7365345 q -0.2328337,0 -0.3746506,-0.179917 -0.1418169,-0.1820336 -0.1418169,-0.5228174 0,-0.3429006 0.1418169,-0.5164675 0.1418169,-0.1756836 0.3746506,-0.1756836 0.2328337,0 0.3746505,0.1756836 0.1418169,0.1735669 0.1418169,0.5164675 0,0.3407838 -0.1418169,0.5228174 -0.1418168,0.179917 -0.3746505,0.179917 z m 0,-0.2413004 q 0.067733,0 0.1206502,-0.042333 0.055033,-0.042333 0.086783,-0.1439335 0.03175,-0.1016002 0.03175,-0.2751671 0,-0.1756836 -0.03175,-0.2730504 -0.03175,-0.097367 -0.086783,-0.1375836 -0.052917,-0.040217 -0.1206502,-0.040217 -0.065617,0 -0.1206502,0.040217 -0.055033,0.040217 -0.086784,0.1375836 -0.03175,0.097367 -0.03175,0.2730504 0,0.1735669 0.03175,0.2751671 0.03175,0.1016001 0.086784,0.1439335 0.055033,0.042333 0.1206502,0.042333 z m 0,-0.3048005 q -0.065617,0 -0.1121835,-0.04445 -0.046567,-0.04445 -0.046567,-0.1164169 0,-0.074083 0.046567,-0.1164168 0.046567,-0.04445 0.1121835,-0.04445 0.067733,0 0.1121835,0.04445 0.046567,0.042333 0.046567,0.1164168 0,0.071967 -0.046567,0.1164169 -0.04445,0.04445 -0.1121835,0.04445 z"
         id="path994"
         style="font-weight:bold;font-size:2.11667px;line-height:1.25;font-family:'SauceCodePro Nerd Font';-inkscape-font-specification:'SauceCodePro Nerd Font, Bold';fill:#1b161f;stroke-width:0.264583" />
      <path
         d="m 3.6015092,4.7365345 q -0.2328337,0 -0.3746505,-0.179917 -0.1418169,-0.1820336 -0.1418169,-0.5228174 0,-0.3429006 0.1418169,-0.5164675 0.1418168,-0.1756836 0.3746505,-0.1756836 0.2328337,0 0.3746506,0.1756836 0.1418169,0.1735669 0.1418169,0.5164675 0,0.3407838 -0.1418169,0.5228174 -0.1418169,0.179917 -0.3746506,0.179917 z m 0,-0.2413004 q 0.067733,0 0.1206502,-0.042333 0.055033,-0.042333 0.086784,-0.1439335 0.03175,-0.1016002 0.03175,-0.2751671 0,-0.1756836 -0.03175,-0.2730504 -0.03175,-0.097367 -0.086784,-0.1375836 -0.052917,-0.040217 -0.1206502,-0.040217 -0.065617,0 -0.1206501,0.040217 -0.055033,0.040217 -0.086784,0.1375836 -0.03175,0.097367 -0.03175,0.2730504 0,0.1735669 0.03175,0.2751671 0.03175,0.1016001 0.086784,0.1439335 0.055033,0.042333 0.1206501,0.042333 z m 0,-0.3048005 q -0.065617,0 -0.1121835,-0.04445 -0.046567,-0.04445 -0.046567,-0.1164169 0,-0.074083 0.046567,-0.1164168 0.046567,-0.04445 0.1121835,-0.04445 0.067733,0 0.1121835,0.04445 0.046567,0.042333 0.046567,0.1164168 0,0.071967 -0.046567,0.1164169 -0.04445,0.04445 -0.1121835,0.04445 z"
         id="path991"
         style="font-weight:bold;font-size:2.11667px;line-height:1.25;font-family:'SauceCodePro Nerd Font';-inkscape-font-specification:'SauceCodePro Nerd Font, Bold';fill:#1b161f;stroke-width:0.264583" />
      <path
         d="m 4.8715079,4.7365345 q -0.2328337,0 -0.3746506,-0.179917 -0.1418168,-0.1820336 -0.1418168,-0.5228174 0,-0.3429006 0.1418168,-0.5164675 0.1418169,-0.1756836 0.3746506,-0.1756836 0.2328337,0 0.3746506,0.1756836 0.1418169,0.1735669 0.1418169,0.5164675 0,0.3407838 -0.1418169,0.5228174 -0.1418169,0.179917 -0.3746506,0.179917 z m 0,-0.2413004 q 0.067733,0 0.1206502,-0.042333 0.055033,-0.042333 0.086784,-0.1439335 0.03175,-0.1016002 0.03175,-0.2751671 0,-0.1756836 -0.03175,-0.2730504 -0.03175,-0.097367 -0.086784,-0.1375836 -0.052917,-0.040217 -0.1206502,-0.040217 -0.065617,0 -0.1206502,0.040217 -0.055033,0.040217 -0.086783,0.1375836 -0.03175,0.097367 -0.03175,0.2730504 0,0.1735669 0.03175,0.2751671 0.03175,0.1016001 0.086783,0.1439335 0.055033,0.042333 0.1206502,0.042333 z m 0,-0.3048005 q -0.065617,0 -0.1121835,-0.04445 -0.046567,-0.04445 -0.046567,-0.1164169 0,-0.074083 0.046567,-0.1164168 0.046567,-0.04445 0.1121835,-0.04445 0.067733,0 0.1121835,0.04445 0.046567,0.042333 0.046567,0.1164168 0,0.071967 -0.046567,0.1164169 -0.04445,0.04445 -0.1121835,0.04445 z"
         id="path988"
         style="font-weight:bold;font-size:2.11667px;line-height:1.25;font-family:'SauceCodePro Nerd Font';-inkscape-font-specification:'SauceCodePro Nerd Font, Bold';fill:#1b161f;stroke-width:0.264583" />
      <path
         d="M 5.6737226,4.7111344 V 4.4592507 H 6.0356732 V 3.6824329 H 5.7372227 v -0.192617 q 0.1375836,-0.021167 0.2201337,-0.048683 0.08255,-0.027517 0.1608669,-0.074083 h 0.2286004 v 1.0922016 h 0.3048004 v 0.2518837 z"
         id="path1198"
         style="font-weight:bold;font-size:2.11667px;line-height:1.25;font-family:'SauceCodePro Nerd Font';-inkscape-font-specification:'SauceCodePro Nerd Font, Bold';fill:#1b161f;stroke-width:0.264583" />
      <text
         xml:space="preserve"
         style="font-style:normal;font-variant:normal;font-weight:bold;font-stretch:normal;font-size:2.11667px;line-height:1.25;font-family:'SauceCodePro Nerd Font';-inkscape-font-specification:'SauceCodePro Nerd Font, Bold';font-variant-ligatures:normal;font-variant-caps:normal;font-variant-numeric:normal;font-variant-east-asian:normal;fill:#1b161f;fill-opacity:1;stroke:none;stroke-width:0.264583"
         x="1.6721679"
         y="6.3375745"
         id="text889"><tspan
           sodipodi:role="line"
           id="tspan909"
           x="1.6721679"
           y="6.3375745">1001</tspan></text>
      <text
         xml:space="preserve"
         style="font-style:normal;font-variant:normal;font-weight:bold;font-stretch:normal;font-size:2.11667px;line-height:1.25;font-family:'SauceCodePro Nerd Font';-inkscape-font-specification:'SauceCodePro Nerd Font, Bold';font-variant-ligatures:normal;font-variant-caps:normal;font-variant-numeric:normal;font-variant-east-asian:normal;fill:#1b161f;fill-opacity:1;stroke:none;stroke-width:0.264583"
         x="1.6721679"
         y="7.9640145"
         id="text913"><tspan
           sodipodi:role="line"
           id="tspan933"
           x="1.6721679"
           y="7.9640145">1101</tspan></text>
    </g>
  </g>
</svg>
