<?xml version="1.0" encoding="UTF-8" standalone="no"?>
<!-- Created with Inkscape (http://www.inkscape.org/) -->

<svg
   width="32"
   height="32"
   viewBox="0 0 8.4666665 8.4666669"
   version="1.1"
   id="svg5"
   inkscape:version="1.1.2 (0a00cf5339, 2022-02-04)"
   sodipodi:docname="edit.svg"
   inkscape:export-filename="/home/tgy-tutorials/Scrivania/edit.png"
   inkscape:export-xdpi="96"
   inkscape:export-ydpi="96"
   xmlns:inkscape="http://www.inkscape.org/namespaces/inkscape"
   xmlns:sodipodi="http://sodipodi.sourceforge.net/DTD/sodipodi-0.dtd"
   xmlns="http://www.w3.org/2000/svg"
   xmlns:svg="http://www.w3.org/2000/svg">
  <sodipodi:namedview
     id="namedview7"
     pagecolor="#8c8c8c"
     bordercolor="#666666"
     borderopacity="1.0"
     inkscape:pageshadow="2"
     inkscape:pageopacity="0"
     inkscape:pagecheckerboard="0"
     inkscape:document-units="px"
     showgrid="false"
     units="px"
     inkscape:showpageshadow="false"
     inkscape:zoom="11.071404"
     inkscape:cx="8.6709874"
     inkscape:cy="6.8193703"
     inkscape:window-width="1920"
     inkscape:window-height="996"
     inkscape:window-x="0"
     inkscape:window-y="28"
     inkscape:window-maximized="1"
     inkscape:current-layer="layer1" />
  <defs
     id="defs2" />
  <g
     inkscape:label="Livello 1"
     inkscape:groupmode="layer"
     id="layer1">
    <path
       d="m 2.0226594,0.90543719 c -0.3486368,0 -0.6338851,0.28524831 -0.6338851,0.63388501 v 5.0710802 c 0,0.3486369 0.2852483,0.6338851 0.6338851,0.6338851 H 3.2904295 V 6.6420967 L 6.4598547,3.4726716 V 2.8070923 L 4.5581997,0.90543719 H 2.0226594 M 4.2412571,1.380851 5.9844409,3.1240348 H 4.2412571 V 1.380851 m 2.2502918,3.0109538 c -0.031694,0 -0.095083,0.031694 -0.126777,0.063389 L 6.0478295,4.7721359 6.7134087,5.4377153 7.0303512,5.1207727 c 0.063389,-0.063389 0.063389,-0.1901655 0,-0.2535541 L 6.618326,4.4551933 C 6.586632,4.4234993 6.554938,4.3918043 6.4915489,4.3918043 M 5.857664,4.9623009 3.9243146,6.8956503 V 7.56123 H 4.5898939 L 6.5232432,5.6278807 Z"
       id="path5933"
       style="fill:#e6e6e6;fill-opacity:1;stroke-width:0.316942" />
  </g>
  <style
     type="text/css"
     id="style884">
	.st0{fill:#FFFFFF;}
	.st1{fill:#69B53F;}
	.st2{fill:#F8F8F8;}
</style>
</svg>
