<?xml version="1.0" encoding="UTF-8" standalone="no"?>
<!-- Created with Inkscape (http://www.inkscape.org/) -->

<svg
   width="32"
   height="32"
   viewBox="0 0 8.4666665 8.4666669"
   version="1.1"
   id="svg5"
   inkscape:version="1.1.2 (0a00cf5339, 2022-02-04)"
   sodipodi:docname="gpart.svg"
   inkscape:export-filename="/home/tgy-tutorials/Scrivania/gpart.png"
   inkscape:export-xdpi="96"
   inkscape:export-ydpi="96"
   xmlns:inkscape="http://www.inkscape.org/namespaces/inkscape"
   xmlns:sodipodi="http://sodipodi.sourceforge.net/DTD/sodipodi-0.dtd"
   xmlns="http://www.w3.org/2000/svg"
   xmlns:svg="http://www.w3.org/2000/svg">
  <sodipodi:namedview
     id="namedview7"
     pagecolor="#8c8c8c"
     bordercolor="#666666"
     borderopacity="1.0"
     inkscape:pageshadow="2"
     inkscape:pageopacity="0"
     inkscape:pagecheckerboard="0"
     inkscape:document-units="px"
     showgrid="false"
     units="px"
     inkscape:showpageshadow="false"
     inkscape:zoom="11.071404"
     inkscape:cx="5.6000127"
     inkscape:cy="8.625826"
     inkscape:window-width="1920"
     inkscape:window-height="996"
     inkscape:window-x="0"
     inkscape:window-y="28"
     inkscape:window-maximized="1"
     inkscape:current-layer="layer1" />
  <defs
     id="defs2" />
  <g
     inkscape:label="Livello 1"
     inkscape:groupmode="layer"
     id="layer1">
    <path
       id="path845"
       style="fill:#e6e6e6;stroke-width:0.504198"
       d="M 4.2334407,0.90857917 A 3.3247541,3.3247541 0 0 0 0.90857917,4.2334409 3.3247541,3.3247541 0 0 0 4.2334407,7.5577858 3.3247541,3.3247541 0 0 0 7.5583023,4.2334409 3.3247541,3.3247541 0 0 0 4.2334407,0.90857917 Z M 4.1331885,1.9483091 c 1.2553281,0 2.1089151,0.8038037 2.1089151,2.1595581 H 4.1331885 v 2.1590413 c -1.5566072,0 -2.1590415,-1.1046526 -2.1590415,-2.1089152 0,-1.3055413 0.9037132,-2.2096842 2.1590415,-2.2096842 z m 0.3012734,2.4608317 h 2.058789 c 0,1.3055413 -0.8536739,2.1089151 -2.058789,2.1089151 z" />
  </g>
  <style
     type="text/css"
     id="style884">
	.st0{fill:#FFFFFF;}
	.st1{fill:#69B53F;}
	.st2{fill:#F8F8F8;}
</style>
</svg>
