<?xml version="1.0" encoding="UTF-8" standalone="no"?>
<!-- Created with Inkscape (http://www.inkscape.org/) -->

<svg
   width="32"
   height="32"
   viewBox="0 0 8.4666665 8.4666669"
   version="1.1"
   id="svg5"
   inkscape:version="1.1.2 (0a00cf5339, 2022-02-04)"
   sodipodi:docname="siduction.svg"
   inkscape:export-filename="/home/tgy-tutorials/Scrivania/siduction.png"
   inkscape:export-xdpi="96"
   inkscape:export-ydpi="96"
   xmlns:inkscape="http://www.inkscape.org/namespaces/inkscape"
   xmlns:sodipodi="http://sodipodi.sourceforge.net/DTD/sodipodi-0.dtd"
   xmlns:xlink="http://www.w3.org/1999/xlink"
   xmlns="http://www.w3.org/2000/svg"
   xmlns:svg="http://www.w3.org/2000/svg">
  <sodipodi:namedview
     id="namedview7"
     pagecolor="#8c8c8c"
     bordercolor="#666666"
     borderopacity="1.0"
     inkscape:pageshadow="2"
     inkscape:pageopacity="0"
     inkscape:pagecheckerboard="0"
     inkscape:document-units="px"
     showgrid="false"
     units="px"
     inkscape:showpageshadow="false"
     inkscape:zoom="2.7677615"
     inkscape:cx="-66.479716"
     inkscape:cy="-21.85882"
     inkscape:window-width="1920"
     inkscape:window-height="996"
     inkscape:window-x="0"
     inkscape:window-y="28"
     inkscape:window-maximized="1"
     inkscape:current-layer="layer1" />
  <defs
     id="defs2">
    <linearGradient
       id="linearGradient6147-1-1-4-4-7-0-6-1">
      <stop
         id="stop6149-6-3-9-3-3-6-7-8"
         offset="0"
         style="stop-color:#5f8dd3;stop-opacity:1;" />
      <stop
         id="stop6151-5-0-9-5-1-1-4-6"
         offset="1"
         style="stop-color:#162d50;stop-opacity:1;" />
    </linearGradient>
    <radialGradient
       inkscape:collect="always"
       xlink:href="#linearGradient6147-1-1-4-4-7-0-6-1"
       id="radialGradient5132"
       gradientUnits="userSpaceOnUse"
       gradientTransform="matrix(0.68941368,0.68941368,-0.68941893,0.68941893,199.77384,-532.32858)"
       spreadMethod="pad"
       cx="1027.8583"
       cy="477.45059"
       fx="1027.8583"
       fy="477.45059"
       r="57.480274" />
  </defs>
  <g
     inkscape:label="Livello 1"
     inkscape:groupmode="layer"
     id="layer1">
    <path
       id="path7493"
       style="fill:#e6e6e6;fill-opacity:1;stroke:none;stroke-width:16.8275;stroke-linecap:round;stroke-miterlimit:4;stroke-dasharray:none;stroke-opacity:1"
       d="M 4.2334407,0.90857917 A 3.3247541,3.3247541 0 0 0 0.90857917,4.2334408 3.3247541,3.3247541 0 0 0 4.2334407,7.5583024 3.3247541,3.3247541 0 0 0 7.5583024,4.2334408 3.3247541,3.3247541 0 0 0 4.2334407,0.90857917 Z M 4.1161353,1.983449 c 0.00402,-1.025e-4 0.00784,0 0.011886,0 0.258948,0 0.4687052,0.2111327 0.4687052,0.471289 1e-6,0.2601545 -0.2097577,0.4707719 -0.4687052,0.4707723 -0.2589479,-10e-8 -0.4687051,-0.2106161 -0.4687054,-0.4707723 0,-0.2560912 0.2034604,-0.4648358 0.4568194,-0.471289 z m 0.8795329,0.833024 c 0.00447,-1.138e-4 0.00894,1e-7 0.013436,0 0.28772,1e-7 0.5208989,0.23442 0.5208984,0.5234823 5e-7,0.2890596 -0.2331797,0.5234811 -0.5208984,0.5234822 -0.2877196,0 -0.5208982,-0.23442 -0.5208985,-0.5234822 0,-0.2845458 0.2259518,-0.516312 0.5074625,-0.5234823 z M 3.2014625,2.9508317 c 0.00362,-9.21e-5 0.00721,10e-8 0.010852,0 0.2330532,10e-8 0.4216794,0.1896061 0.4216797,0.4237468 1.1e-6,0.234139 -0.1886267,0.4242632 -0.4216797,0.4242635 -0.2330532,-2e-7 -0.4221964,-0.1901229 -0.4221964,-0.4242635 0,-0.2304822 0.1833208,-0.4179388 0.4113444,-0.4237468 z m 2.688208,0.7069336 c 0.00496,-1.264e-4 0.00999,1e-7 0.014986,0 0.3196865,-10e-8 0.5787759,0.2601795 0.5787759,0.5813598 1.4e-6,0.3211783 -0.2590894,0.5818762 -0.5787759,0.5818767 -0.3196889,-5e-7 -0.578776,-0.2606963 -0.578776,-0.5818767 0,-0.3161609 0.2510004,-0.5733923 0.56379,-0.5813598 z M 4.0815119,3.7890235 c 0.00402,-1.025e-4 0.00784,1e-7 0.011886,0 0.2589482,1e-7 0.4687051,0.2106161 0.4687054,0.4707722 10e-7,0.2601545 -0.2097577,0.4712888 -0.4687054,0.4712891 -0.258948,0 -0.4687049,-0.2111328 -0.4687052,-0.4712891 0,-0.2560908 0.2034612,-0.464319 0.4568192,-0.4707722 z m -1.7280598,0.056844 c 0.00326,-8.29e-5 0.00654,10e-8 0.00982,0 0.2097481,0 0.3798218,0.1706455 0.3798218,0.381372 8e-7,0.2107253 -0.1700745,0.3818885 -0.3798218,0.381889 -0.2097479,-3e-7 -0.3798218,-0.1711624 -0.3798218,-0.381889 0,-0.2074339 0.1647822,-0.3761449 0.3700031,-0.381372 z m 2.6215456,0.7901326 c 0.00447,-1.138e-4 0.00894,3e-7 0.013436,0 0.2877198,3e-7 0.5214151,0.2344195 0.5214151,0.5234824 1.4e-6,0.2890607 -0.2336956,0.5234821 -0.5214151,0.5234821 -0.2877204,0 -0.5208982,-0.2344196 -0.5208984,-0.5234821 0,-0.2845459 0.225952,-0.5163119 0.5074624,-0.5234824 z m -1.7301271,0.05271 c 0.2330532,0 0.4216797,0.1901227 0.4216797,0.4242636 1.1e-6,0.2341388 -0.1886268,0.4237464 -0.4216797,0.4237467 -0.2330532,0 -0.4221964,-0.189606 -0.4221964,-0.4237467 0,-0.2341406 0.189139,-0.4242591 0.4221964,-0.4242636 z m 0.8831503,0.8526611 c 0.00402,-1.024e-4 0.00784,3e-7 0.011886,0 0.258948,3e-7 0.4687049,0.210616 0.4687052,0.4707723 1e-6,0.2601545 -0.2097577,0.4712886 -0.4687052,0.4712891 -0.2589482,-3e-7 -0.4687051,-0.2111328 -0.4687054,-0.4712891 3e-7,-0.2560912 0.2034604,-0.4643191 0.4568194,-0.4707723 z" />
  </g>
  <style
     type="text/css"
     id="style884">
	.st0{fill:#FFFFFF;}
	.st1{fill:#69B53F;}
	.st2{fill:#F8F8F8;}
</style>
</svg>
