<?xml version="1.0" encoding="UTF-8" standalone="no"?>
<!-- Created with Inkscape (http://www.inkscape.org/) -->

<svg
   width="512"
   height="512"
   viewBox="0 0 135.46666 135.46667"
   version="1.1"
   id="svg8"
   inkscape:version="1.1.2 (0a00cf5339, 2022-02-04)"
   sodipodi:docname="desktop3-active.svg"
   inkscape:export-filename="/home/giagio/Icons/xfce4-terminal-root.png"
   inkscape:export-xdpi="96"
   inkscape:export-ydpi="96"
   xmlns:inkscape="http://www.inkscape.org/namespaces/inkscape"
   xmlns:sodipodi="http://sodipodi.sourceforge.net/DTD/sodipodi-0.dtd"
   xmlns="http://www.w3.org/2000/svg"
   xmlns:svg="http://www.w3.org/2000/svg"
   xmlns:rdf="http://www.w3.org/1999/02/22-rdf-syntax-ns#"
   xmlns:cc="http://creativecommons.org/ns#"
   xmlns:dc="http://purl.org/dc/elements/1.1/">
  <defs
     id="defs2" />
  <sodipodi:namedview
     id="base"
     pagecolor="#ffffff"
     bordercolor="#666666"
     borderopacity="1.0"
     inkscape:pageopacity="0.0"
     inkscape:pageshadow="2"
     inkscape:zoom="0.89380532"
     inkscape:cx="159.43069"
     inkscape:cy="256.76732"
     inkscape:document-units="px"
     inkscape:current-layer="layer1"
     showgrid="false"
     units="px"
     inkscape:window-width="1920"
     inkscape:window-height="1048"
     inkscape:window-x="0"
     inkscape:window-y="0"
     inkscape:window-maximized="1"
     showguides="true"
     inkscape:guide-bbox="true"
     inkscape:pagecheckerboard="0">
    <sodipodi:guide
       position="0,7.9375002"
       orientation="0,1"
       id="guide7121"
       inkscape:label=""
       inkscape:color="rgb(0,0,255)"
       inkscape:locked="false" />
    <sodipodi:guide
       position="0,127.52917"
       orientation="0,1"
       id="guide7123"
       inkscape:label=""
       inkscape:color="rgb(0,0,255)"
       inkscape:locked="false" />
    <sodipodi:guide
       position="7.9374996,0"
       orientation="1,0"
       id="guide7125"
       inkscape:label=""
       inkscape:color="rgb(0,0,255)"
       inkscape:locked="false" />
    <sodipodi:guide
       position="127.52916,0"
       orientation="1,0"
       id="guide7127"
       inkscape:label=""
       inkscape:color="rgb(0,0,255)"
       inkscape:locked="false" />
  </sodipodi:namedview>
  <metadata
     id="metadata5">
    <rdf:RDF>
      <cc:Work
         rdf:about="">
        <dc:format>image/svg+xml</dc:format>
        <dc:type
           rdf:resource="http://purl.org/dc/dcmitype/StillImage" />
      </cc:Work>
    </rdf:RDF>
  </metadata>
  <g
     inkscape:label="Layer 1"
     inkscape:groupmode="layer"
     id="layer1"
     transform="translate(0,-161.53332)">
    <g
       id="g4131"
       transform="translate(1.4442264,155.22753)"
       style="opacity:0.41800005;fill:#000000;fill-opacity:1;stroke:#000000;stroke-opacity:1" />
    <rect
       style="fill:#694c9f;fill-opacity:1;stroke-width:0.562471"
       id="rect852"
       width="135.46666"
       height="135.46666"
       x="0"
       y="161.53333"
       rx="13.229166"
       ry="13.229166" />
    <g
       aria-label="3"
       transform="matrix(0.51157687,0,0,0.51157687,210.29406,125.37028)"
       style="font-style:normal;font-weight:normal;font-size:40px;line-height:1.25;font-family:sans-serif;letter-spacing:0px;word-spacing:0px;fill:#ffffff;fill-opacity:1;stroke:#373737;stroke-width:3.90948081;stroke-miterlimit:4;stroke-dasharray:none;stroke-opacity:1"
       id="flowRoot3797">
      <path
         inkscape:connector-curvature="0"
         d="m -296.10352,191.23108 16.40625,0 q 4.875,0 8.8125,-1.3125 4.03125,-1.40625 6.84375,-3.84375 2.90625,-2.53125 4.40625,-6 1.59375,-3.46875 1.59375,-7.6875 0,-8.25 -5.625,-13.21875 -5.625,-4.96875 -16.21875,-4.96875 -4.96875,0 -9,1.40625 -4.03125,1.40625 -6.9375,4.03125 -2.90625,2.53125 -4.6875,6.1875 -1.6875,3.5625 -1.96875,7.96875 l -26.0625,0 q 0.375,-9.375 4.03125,-16.96875 3.75,-7.6875 10.21875,-13.03125 6.5625,-5.4375 15.5625,-8.34375 9.09375,-3 20.0625,-3 10.5,0 19.21875,2.625 8.71875,2.53125 15,7.3125 6.28125,4.6875 9.65625,11.34375 3.46875,6.65625 3.46875,14.8125 0,6.1875 -2.0625,11.53125 -1.96875,5.25 -5.71875,9.375 -3.65625,4.03125 -8.8125,6.84375 -5.15625,2.71875 -11.34375,3.84375 l 0,0.5625 q 7.59375,0.65625 13.6875,3.1875 6.09375,2.53125 10.40625,6.75 4.40625,4.21875 6.75,9.9375 2.34375,5.71875 2.34375,12.75 0,9.09375 -3.9375,16.59375 -3.9375,7.40625 -10.96875,12.75 -7.03125,5.25 -16.875,8.15625 -9.75,2.90625 -21.46875,2.90625 -11.4375,0 -20.8125,-3 -9.375,-3 -16.125,-8.4375 -6.65625,-5.53125 -10.59375,-13.21875 -3.84375,-7.6875 -4.3125,-17.0625 l 27.09375,0 q 0.65625,8.625 7.21875,13.78125 6.65625,5.15625 17.90625,5.15625 5.34375,0 9.75,-1.40625 4.40625,-1.40625 7.59375,-3.9375 3.1875,-2.625 4.96875,-6.1875 1.78125,-3.5625 1.78125,-7.875 0,-9.375 -6.5625,-14.625 -6.46875,-5.25 -18,-5.25 l -16.6875,0 z"
         style="font-style:normal;font-variant:normal;font-weight:bold;font-stretch:normal;font-size:192px;font-family:'SFNS Display';-inkscape-font-specification:'SFNS Display Bold';fill:#ffffff;fill-opacity:1;stroke:#373737;stroke-width:3.90948081;stroke-miterlimit:4;stroke-dasharray:none;stroke-opacity:1"
         id="path3800" />
    </g>
  </g>
</svg>
