<?xml version="1.0" encoding="UTF-8" standalone="no"?>
<!-- Created with Inkscape (http://www.inkscape.org/) -->

<svg
   xmlns:dc="http://purl.org/dc/elements/1.1/"
   xmlns:cc="http://creativecommons.org/ns#"
   xmlns:rdf="http://www.w3.org/1999/02/22-rdf-syntax-ns#"
   xmlns:svg="http://www.w3.org/2000/svg"
   xmlns="http://www.w3.org/2000/svg"
   xmlns:sodipodi="http://sodipodi.sourceforge.net/DTD/sodipodi-0.dtd"
   xmlns:inkscape="http://www.inkscape.org/namespaces/inkscape"
   width="512"
   height="512"
   viewBox="0 0 135.46666 135.46667"
   version="1.1"
   id="svg8"
   inkscape:version="0.92.2 5c3e80d, 2017-08-06"
   sodipodi:docname="xfce4-panel-desktop4.svg"
   inkscape:export-filename="/home/giagio/Icons/xfce4-terminal-root.png"
   inkscape:export-xdpi="96"
   inkscape:export-ydpi="96">
  <defs
     id="defs2" />
  <sodipodi:namedview
     id="base"
     pagecolor="#ffffff"
     bordercolor="#666666"
     borderopacity="1.0"
     inkscape:pageopacity="0.0"
     inkscape:pageshadow="2"
     inkscape:zoom="0.89380532"
     inkscape:cx="-250.82178"
     inkscape:cy="256"
     inkscape:document-units="px"
     inkscape:current-layer="layer1"
     showgrid="false"
     units="px"
     inkscape:window-width="1366"
     inkscape:window-height="717"
     inkscape:window-x="0"
     inkscape:window-y="27"
     inkscape:window-maximized="1"
     showguides="true"
     inkscape:guide-bbox="true">
    <sodipodi:guide
       position="0,7.9375002"
       orientation="0,1"
       id="guide7121"
       inkscape:label=""
       inkscape:color="rgb(0,0,255)"
       inkscape:locked="false" />
    <sodipodi:guide
       position="0,127.52917"
       orientation="0,1"
       id="guide7123"
       inkscape:label=""
       inkscape:color="rgb(0,0,255)"
       inkscape:locked="false" />
    <sodipodi:guide
       position="7.9374996,0"
       orientation="1,0"
       id="guide7125"
       inkscape:label=""
       inkscape:color="rgb(0,0,255)"
       inkscape:locked="false" />
    <sodipodi:guide
       position="127.52916,0"
       orientation="1,0"
       id="guide7127"
       inkscape:label=""
       inkscape:color="rgb(0,0,255)"
       inkscape:locked="false" />
  </sodipodi:namedview>
  <metadata
     id="metadata5">
    <rdf:RDF>
      <cc:Work
         rdf:about="">
        <dc:format>image/svg+xml</dc:format>
        <dc:type
           rdf:resource="http://purl.org/dc/dcmitype/StillImage" />
        <dc:title />
      </cc:Work>
    </rdf:RDF>
  </metadata>
  <g
     inkscape:label="Layer 1"
     inkscape:groupmode="layer"
     id="layer1"
     transform="translate(0,-161.53332)">
    <g
       id="g4131"
       transform="translate(1.4442264,155.22753)"
       style="opacity:0.41800005;fill:#000000;fill-opacity:1;stroke:#000000;stroke-opacity:1" />
    <g
       aria-label="4"
       transform="matrix(0.51157687,0,0,0.51157687,208.87759,125.37028)"
       style="font-style:normal;font-weight:normal;font-size:40px;line-height:1.25;font-family:sans-serif;letter-spacing:0px;word-spacing:0px;fill:#969696;fill-opacity:1;stroke:#373737;stroke-width:3.90948081;stroke-miterlimit:4;stroke-dasharray:none;stroke-opacity:1"
       id="flowRoot3797-6">
      <path
         inkscape:connector-curvature="0"
         d="m -264.50977,246.63733 -67.3125,0 0,-24.09375 q 4.40625,-8.4375 9.5625,-17.34375 5.15625,-8.90625 11.625,-19.3125 6.46875,-10.40625 14.53125,-22.6875 8.15625,-12.375 18.5625,-27.75 l 39.9375,0 0,88.5 17.625,0 0,22.6875 -17.625,0 0,24.09375 -26.90625,0 z m -42.46875,-21.84375 43.03125,0 0,-69.28125 -0.5625,0 q -7.40625,10.875 -13.40625,19.96875 -6,9 -11.15625,17.15625 -5.0625,8.15625 -9.46875,15.84375 -4.3125,7.59375 -8.4375,15.5625 z"
         style="font-style:normal;font-variant:normal;font-weight:bold;font-stretch:normal;font-size:192px;font-family:'SFNS Display';-inkscape-font-specification:'SFNS Display Bold';fill:#969696;fill-opacity:1;stroke:#373737;stroke-width:3.90948081;stroke-miterlimit:4;stroke-dasharray:none;stroke-opacity:1"
         id="path3800-7" />
    </g>
  </g>
</svg>
